"","X1","X2","X3"
"1",1.5653260791163,0.766800416430955,-1.26871879906914
"2",-0.847118368392684,-0.0915202609179469,-0.0100813289857133
"3",1.32766015821886,-1.87430580949677,0.653401724502478
"4",0.477046331297495,-0.664162017642438,0.0985799794940007
"5",0.185250936701998,0.203412817864451,0.902616941324951
"6",0.253294888269178,-2.59444339336319,-0.519897495889219
"7",2.59222735059808,-0.0937339314326884,-1.29349097974465
"8",1.0743469927976,-0.42731991750986,-0.0468977104387991
"9",-1.59690189232843,0.442979277073699,-0.634996265894026
"10",-0.08758859634284,-1.18780792537667,-0.217702271888753
"11",0.360767590473571,0.626425473400949,-1.57484166313679
"12",-0.879959981390249,0.361646601426292,-0.277503151930296
"13",-3.32333496463735,-0.472960579074293,0.550292207500562
"14",-0.467515453104074,0.944893702291135,-0.610946617050162
"15",0.431540265686064,0.906402247532177,-2.13486545165556
"16",-0.603989453839599,0.471773704653551,0.699277437883826
"17",0.674446692727869,0.389499930452052,1.07719596695356
"18",0.635920535815115,0.521940267341663,0.867918157302513
"19",-0.6129703875966,0.904452839801686,-0.790739378535981
"20",0.414891345420873,1.69679092635824,-0.10933017366166
"21",0.87734337263099,-0.884337435337159,-0.930350061060798
"22",0.0211575826150345,0.856489701469777,-0.367121264652075
"23",1.81038329471412,0.174942450574153,-0.8929143087506
"24",-0.452095704176033,-0.39850496200257,-0.357772808042799
"25",-0.125123985524671,0.275202562394104,-0.26746212397493
